Mejora tus gráficos con ggplot2
…
]

.right-column[

Data en formato __"limpio"__ (_"tidy"_):

1. Cada __variable__ es una __columna__.
2. Cada __observación__ es una __fila__.

```r
pinguinos
```

```
## # A tibble: 342 x 6
##    species island    bill_length_mm bill_depth_mm sex     year
##    <fct>   <fct>              <dbl>         <dbl> <fct>  <int>
##  1 Adelie  Torgersen           39.1          18.7 male    2007
##  2 Adelie  Torgersen           39.5          17.4 female  2007
##  3 Adelie  Torgersen           40.3          18   female  2007
##  4 Adelie  Torgersen           36.7          19.3 female  2007
##  5 Adelie  Torgersen           39.3          20.6 male    2007
##  6 Adelie  Torgersen           38.9          17.8 female  2007
##  7 Adelie  Torgersen           39.2          19.6 male    2007
##  8 Adelie  Torgersen           34.1          18.1 <NA>    2007
##  9 Adelie  Torgersen           42            20.2 <NA>    2007
## 10 Adelie  Torgersen           37.8          17.1 <NA>    2007
## # … with 332 more rows
```
…
